%YAML 1.1
%TAG !u! tag:unity3d.com,2011:
--- !u!114 &11400000
MonoBehaviour:
  m_ObjectHideFlags: 0
  m_CorrespondingSourceObject: {fileID: 0}
  m_PrefabInstance: {fileID: 0}
  m_PrefabAsset: {fileID: 0}
  m_GameObject: {fileID: 0}
  m_Enabled: 1
  m_EditorHideFlags: 0
  m_Script: {fileID: 11500000, guid: 95e66c6366d904e98bc83428217d4fd7, type: 3}
  m_Name: helloWorld
  m_EditorClassIdentifier: 
  _data:
    _json: '{"graph":{"variables":{"Kind":"Flow","collection":{"$content":[],"$version":"A"},"$version":"A"},"controlInputDefinitions":[],"controlOutputDefinitions":[],"valueInputDefinitions":[],"valueOutputDefinitions":[],"title":null,"summary":null,"pan":{"x":0.0,"y":-97.67838},"zoom":1.0,"elements":[{"coroutine":false,"defaultValues":{},"position":{"x":-204.0,"y":-144.0},"guid":"3b01b9eb-43e0-4c67-b198-47701469f862","$version":"A","$type":"Unity.VisualScripting.Start","$id":"9"},{"coroutine":false,"defaultValues":{},"position":{"x":-207.0,"y":124.0},"guid":"01c63c08-c6cd-4c2b-a90d-b73b3a2ac7cb","$version":"A","$type":"Unity.VisualScripting.Update"},{"chainable":false,"parameterNames":["message"],"member":{"name":"print","parameterTypes":["System.Object"],"targetType":"UnityEngine.MonoBehaviour","targetTypeName":"UnityEngine.MonoBehaviour","$version":"A"},"defaultValues":{},"position":{"x":68.0,"y":-143.0},"guid":"468aa57f-75b0-49b2-9601-69605f080918","$version":"A","$type":"Unity.VisualScripting.InvokeMember","$id":"13"},{"type":"System.String","value":{"$content":"Hello
      World!","$type":"System.String"},"defaultValues":{},"position":{"x":-211.0,"y":-5.0},"guid":"967c716f-46f9-4913-ad9b-0a150f01bb29","$version":"A","$type":"Unity.VisualScripting.Literal","$id":"17"},{"sourceUnit":{"$ref":"9"},"sourceKey":"trigger","destinationUnit":{"$ref":"13"},"destinationKey":"enter","guid":"9a8140de-14e6-491f-8da1-03900b67f810","$type":"Unity.VisualScripting.ControlConnection"},{"sourceUnit":{"$ref":"17"},"sourceKey":"output","destinationUnit":{"$ref":"13"},"destinationKey":"%message","guid":"3c79d8a4-679e-49e9-ae8e-e2ac266bd2d3","$type":"Unity.VisualScripting.ValueConnection"}],"$version":"A"}}'
    _objectReferences: []
